{
    "page": 1,
    "total_results": 19822,
    "total_pages": 992,
    "results": [
      {
        "vote_count": 3971,
        "id": 346364,
        "video": false,
        "vote_average": 7.3,
        "title": "It",
        "popularity": 1161.844144,
        "poster_path": "/9E2y5Q7WlCVNEhP5GiVTjhEhx1o.jpg",
        "original_language": "en",
        "original_title": "It",
        "genre_ids": [
          18,
          14,
          27,
          53
        ],
        "backdrop_path": "/tcheoA2nPATCm2vvXw2hVQoaEFD.jpg",
        "adult": false,
        "overview": "In a small town in Maine, seven children known as The Losers Club come face to face with life problems, bullies and a monster that takes the shape of a clown called Pennywise.",
        "release_date": "2017-09-05"
      },
      {
        "vote_count": 1930,
        "id": 284053,
        "video": false,
        "vote_average": 7.6,
        "title": "Thor: Ragnarok",
        "popularity": 1013.06609,
        "poster_path": "/oSLd5GYGsiGgzDPKTwQh7wamO8t.jpg",
        "original_language": "en",
        "original_title": "Thor: Ragnarok",
        "genre_ids": [
          28,
          12,
          35,
          14,
          878
        ],
        "backdrop_path": "/5wNUJs23rT5rTBacNyf5h83AynM.jpg",
        "adult": false,
        "overview": "Thor is imprisoned on the other side of the universe and finds himself in a race against time to get back to Asgard to stop Ragnarok, the destruction of his homeworld and the end of Asgardian civilization, at the hands of an all-powerful new threat, the ruthless Hela.",
        "release_date": "2017-10-25"
      },
      {
        "vote_count": 909,
        "id": 141052,
        "video": false,
        "vote_average": 7,
        "title": "Justice League",
        "popularity": 828.900555,
        "poster_path": "/9rtrRGeRnL0JKtu9IMBWsmlmmZz.jpg",
        "original_language": "en",
        "original_title": "Justice League",
        "genre_ids": [
          28,
          12,
          14,
          878
        ],
        "backdrop_path": "/o5T8rZxoWSBMYwjsUFUqTt6uMQB.jpg",
        "adult": false,
        "overview": "Fueled by his restored faith in humanity and inspired by Superman's selfless act, Bruce Wayne and Diana Prince assemble a team of metahumans consisting of Barry Allen, Arthur Curry, and Victor Stone to face the catastrophic threat of Steppenwolf and the Parademons who are on the hunt for three Mother Boxes on Earth.",
        "release_date": "2017-11-15"
      },
      {
        "vote_count": 473,
        "id": 440021,
        "video": false,
        "vote_average": 6.4,
        "title": "Happy Death Day",
        "popularity": 716.471038,
        "poster_path": "/cTaEIUYTt52ooq9quVbAQ7NpGwo.jpg",
        "original_language": "en",
        "original_title": "Happy Death Day",
        "genre_ids": [
          27,
          9648,
          53
        ],
        "backdrop_path": "/eGx5OfOdvM0gkHdmkLe3hcJuEIT.jpg",
        "adult": false,
        "overview": "A college student relives the day of her murder over and over again as she tries to discover her killer's identity.",
        "release_date": "2017-10-12"
      },
      {
        "vote_count": 358,
        "id": 274855,
        "video": false,
        "vote_average": 5.8,
        "title": "Geostorm",
        "popularity": 710.470305,
        "poster_path": "/nrsx0jEaBgXq4PWo7SooSnYJTv.jpg",
        "original_language": "en",
        "original_title": "Geostorm",
        "genre_ids": [
          28,
          878,
          53
        ],
        "backdrop_path": "/lhTtnsPmEYUJB7nOaTKJzYoxJ7X.jpg",
        "adult": false,
        "overview": "Gerard Butler playing a stubborn but charming satellite designer who, when the world’s climate-controlling satellites malfunction, has to work together with his estranged brother to save the world from a man-made storm of epic proportions. A trip into space follows, while on Earth a plot to assassinate the president begins to unfold.",
        "release_date": "2017-10-13"
      },
      {
        "vote_count": 5049,
        "id": 211672,
        "video": false,
        "vote_average": 6.4,
        "title": "Minions",
        "popularity": 702.430398,
        "poster_path": "/q0R4crx2SehcEEQEkYObktdeFy.jpg",
        "original_language": "en",
        "original_title": "Minions",
        "genre_ids": [
          10751,
          16,
          12,
          35
        ],
        "backdrop_path": "/uX7LXnsC7bZJZjn048UCOwkPXWJ.jpg",
        "adult": false,
        "overview": "Minions Stuart, Kevin and Bob are recruited by Scarlet Overkill, a super-villain who, alongside her inventor husband Herb, hatches a plot to take over the world.",
        "release_date": "2015-06-17"
      },
      {
        "vote_count": 294,
        "id": 298250,
        "video": false,
        "vote_average": 6,
        "title": "Jigsaw",
        "popularity": 644.760776,
        "poster_path": "/zUbUtxiTdEgWnkXY945gtYYqBZ1.jpg",
        "original_language": "en",
        "original_title": "Jigsaw",
        "genre_ids": [
          27,
          53
        ],
        "backdrop_path": "/ytKpFaLMpFWnuSXStz1GHrtTt6R.jpg",
        "adult": false,
        "overview": "Dead bodies begin to turn up all over the city, each meeting their demise in a variety of grisly ways. All investigations begin to point the finger at deceased killer John Kramer.",
        "release_date": "2017-10-20"
      },
      {
        "vote_count": 198,
        "id": 372343,
        "video": false,
        "vote_average": 5,
        "title": "The Snowman",
        "popularity": 612.255585,
        "poster_path": "/bQHgpTVsAWjNQWS0frsl7DlzLX1.jpg",
        "original_language": "en",
        "original_title": "The Snowman",
        "genre_ids": [
          80,
          18,
          27,
          9648,
          53
        ],
        "backdrop_path": "/tAg6KUBANIVbYUpTHy5oKibhhw3.jpg",
        "adult": false,
        "overview": "Detective Harry Hole investigates the disappearance of a woman whose pink scarf is found wrapped around an ominous looking snowman.",
        "release_date": "2017-10-12"
      },
      {
        "vote_count": 5993,
        "id": 297762,
        "video": false,
        "vote_average": 7.2,
        "title": "Wonder Woman",
        "popularity": 600.416363,
        "poster_path": "/imekS7f1OuHyUP2LAiTEM0zBzUz.jpg",
        "original_language": "en",
        "original_title": "Wonder Woman",
        "genre_ids": [
          28,
          12,
          14
        ],
        "backdrop_path": "/6iUNJZymJBMXXriQyFZfLAKnjO6.jpg",
        "adult": false,
        "overview": "An Amazon princess comes to the world of Man to become the greatest of the female superheroes.",
        "release_date": "2017-05-30"
      },
      {
        "vote_count": 115,
        "id": 347882,
        "video": false,
        "vote_average": 5.4,
        "title": "Sleight",
        "popularity": 561.48214,
        "poster_path": "/wridRvGxDqGldhzAIh3IcZhHT5F.jpg",
        "original_language": "en",
        "original_title": "Sleight",
        "genre_ids": [
          18,
          53,
          28,
          878
        ],
        "backdrop_path": "/2SEgJ0mHJ7TSdVDbkGU061tR33K.jpg",
        "adult": false,
        "overview": "A young street magician is left to take care of his little sister after his mother's passing and turns to drug dealing in the Los Angeles party scene to keep a roof over their heads. When he gets into trouble with his supplier, his sister is kidnapped and he is forced to rely on both his sleight of hand and brilliant mind to save her.",
        "release_date": "2017-04-28"
      },
      {
        "vote_count": 182,
        "id": 390062,
        "video": false,
        "vote_average": 5.3,
        "title": "Jungle",
        "popularity": 541.351,
        "poster_path": "/tDgxknTVwrScxpCYyGUjXSn5NRk.jpg",
        "original_language": "en",
        "original_title": "Jungle",
        "genre_ids": [
          12,
          18,
          53
        ],
        "backdrop_path": "/go1a6YwrVTMrNNIfaRpBRp5pIzV.jpg",
        "adult": false,
        "overview": "A mysterious guide escorts an enthusiastic adventurer and his friend into the Amazon jungle, but their journey turns into a terrifying ordeal as the darkest elements of human nature and the deadliest threats of the wild force them to fight for survival.",
        "release_date": "2017-10-20"
      },
      {
        "vote_count": 2378,
        "id": 281338,
        "video": false,
        "vote_average": 6.8,
        "title": "War for the Planet of the Apes",
        "popularity": 490.350024,
        "poster_path": "/3vYhLLxrTtZLysXtIWktmd57Snv.jpg",
        "original_language": "en",
        "original_title": "War for the Planet of the Apes",
        "genre_ids": [
          18,
          878,
          10752
        ],
        "backdrop_path": "/ulMscezy9YX0bhknvJbZoUgQxO5.jpg",
        "adult": false,
        "overview": "Caesar and his apes are forced into a deadly conflict with an army of humans led by a ruthless Colonel. After the apes suffer unimaginable losses, Caesar wrestles with his darker instincts and begins his own mythic quest to avenge his kind. As the journey finally brings them face to face, Caesar and the Colonel are pitted against each other in an epic battle that will determine the fate of both their species and the future of the planet.",
        "release_date": "2017-07-11"
      },
      {
        "vote_count": 191,
        "id": 459202,
        "video": false,
        "vote_average": 5.3,
        "title": "Boo 2! A Madea Halloween",
        "popularity": 432.907766,
        "poster_path": "/5nvP4etJ8ecQv8qZM08dK4BAzdK.jpg",
        "original_language": "en",
        "original_title": "Boo 2! A Madea Halloween",
        "genre_ids": [
          27,
          35
        ],
        "backdrop_path": "/78kN1a1AHxAPEh7hQhNjDQhLZ9W.jpg",
        "adult": false,
        "overview": "Madea and the gang encounter monsters, goblins and boogeymen at a haunted campground.",
        "release_date": "2017-10-20"
      },
      {
        "vote_count": 6016,
        "id": 321612,
        "video": false,
        "vote_average": 6.8,
        "title": "Beauty and the Beast",
        "popularity": 409.111918,
        "poster_path": "/tWqifoYuwLETmmasnGHO7xBjEtt.jpg",
        "original_language": "en",
        "original_title": "Beauty and the Beast",
        "genre_ids": [
          10751,
          14,
          10749
        ],
        "backdrop_path": "/6aUWe0GSl69wMTSWWexsorMIvwU.jpg",
        "adult": false,
        "overview": "A live-action adaptation of Disney's version of the classic 'Beauty and the Beast' tale of a cursed prince and a beautiful young woman who helps him break the spell.",
        "release_date": "2017-03-16"
      },
      {
        "vote_count": 4732,
        "id": 315635,
        "video": false,
        "vote_average": 7.3,
        "title": "Spider-Man: Homecoming",
        "popularity": 377.080026,
        "poster_path": "/kY2c7wKgOfQjvbqe7yVzLTYkxJO.jpg",
        "original_language": "en",
        "original_title": "Spider-Man: Homecoming",
        "genre_ids": [
          28,
          12,
          35,
          878
        ],
        "backdrop_path": "/vc8bCGjdVp0UbMNLzHnHSLRbBWQ.jpg",
        "adult": false,
        "overview": "Following the events of Captain America: Civil War, Peter Parker, with the help of his mentor Tony Stark, tries to balance his life as an ordinary high school student in Queens, New York City, with fighting crime as his superhero alter ego Spider-Man as a new threat, the Vulture, emerges.",
        "release_date": "2017-07-05"
      },
      {
        "vote_count": 6561,
        "id": 177572,
        "video": false,
        "vote_average": 7.8,
        "title": "Big Hero 6",
        "popularity": 366.005619,
        "poster_path": "/9gLu47Zw5ertuFTZaxXOvNfy78T.jpg",
        "original_language": "en",
        "original_title": "Big Hero 6",
        "genre_ids": [
          12,
          10751,
          16,
          28,
          35
        ],
        "backdrop_path": "/2BXd0t9JdVqCp9sKf6kzMkr7QjB.jpg",
        "adult": false,
        "overview": "The special bond that develops between plus-sized inflatable robot Baymax, and prodigy Hiro Hamada, who team up with a group of friends to form a band of high-tech heroes.",
        "release_date": "2014-10-24"
      },
      {
        "vote_count": 1241,
        "id": 341013,
        "video": false,
        "vote_average": 6.1,
        "title": "Atomic Blonde",
        "popularity": 341.162128,
        "poster_path": "/kV9R5h0Yct1kR8Hf8sJ1nX0Vz4x.jpg",
        "original_language": "en",
        "original_title": "Atomic Blonde",
        "genre_ids": [
          53,
          9648,
          28
        ],
        "backdrop_path": "/lj3wkYkJGkfmDfXkKrVarSJpFD4.jpg",
        "adult": false,
        "overview": "An undercover MI6 agent is sent to Berlin during the Cold War to investigate the murder of a fellow agent and recover a missing list of double agents.",
        "release_date": "2017-07-26"
      },
      {
        "vote_count": 5855,
        "id": 245891,
        "video": false,
        "vote_average": 7,
        "title": "John Wick",
        "popularity": 335.843737,
        "poster_path": "/5vHssUeVe25bMrof1HyaPyWgaP.jpg",
        "original_language": "en",
        "original_title": "John Wick",
        "genre_ids": [
          28,
          53
        ],
        "backdrop_path": "/umC04Cozevu8nn3JTDJ1pc7PVTn.jpg",
        "adult": false,
        "overview": "Ex-hitman John Wick comes out of retirement to track down the gangsters that took everything from him.",
        "release_date": "2014-10-22"
      },
      {
        "vote_count": 6443,
        "id": 210577,
        "video": false,
        "vote_average": 7.9,
        "title": "Gone Girl",
        "popularity": 306.242491,
        "poster_path": "/gdiLTof3rbPDAmPaCf4g6op46bj.jpg",
        "original_language": "en",
        "original_title": "Gone Girl",
        "genre_ids": [
          9648,
          53,
          18
        ],
        "backdrop_path": "/bt6DhdALyhf90gReozoQ0y3R3vZ.jpg",
        "adult": false,
        "overview": "With his wife's disappearance having become the focus of an intense media circus, a man sees the spotlight turned on him when it's suspected that he may not be innocent.",
        "release_date": "2014-10-01"
      },
      {
        "vote_count": 224,
        "id": 392044,
        "video": false,
        "vote_average": 6.5,
        "title": "Murder on the Orient Express",
        "popularity": 303.921352,
        "poster_path": "/iBlfxlw8qwtUS0R8YjIU7JtM6LM.jpg",
        "original_language": "en",
        "original_title": "Murder on the Orient Express",
        "genre_ids": [
          80,
          18,
          9648
        ],
        "backdrop_path": "/tvKcA4OFUiZkNeTJmmTkNqKHMMg.jpg",
        "adult": false,
        "overview": "Genius Belgian detective Hercule Poirot investigates the murder of an American tycoon aboard the Orient Express train.",
        "release_date": "2017-11-03"
      }
    ]
  }